{
	"info": {
		"_postman_id": "fadd81c0-6657-4949-ac44-c153e2cbe6e3",
		"name": "Lendesk",
		"schema": "https://schema.getpostman.com/json/collection/v2.1.0/collection.json"
	},
	"item": [
		{
			"name": "http://localhost:3000/auth/v1/create_login",
			"request": {
				"method": "POST",
				"header": [],
				"body": {
					"mode": "raw",
					"raw": "{\n    \"username\": \"name2\",\n    \"password\": \"Pas%8asg9hF\"\n}",
					"options": {
						"raw": {
							"language": "json"
						}
					}
				},
				"url": {
					"raw": "http://localhost:3000/auth/v1/create_login",
					"protocol": "http",
					"host": [
						"localhost"
					],
					"port": "3000",
					"path": [
						"auth",
						"v1",
						"create_login"
					]
				}
			},
			"response": []
		},
		{
			"name": "http://localhost:3000/auth/v1/create_login Copy",
			"request": {
				"method": "POST",
				"header": [],
				"body": {
					"mode": "raw",
					"raw": "{\n    \"username\": \"name4\",\n    \"password\": \"Pas%8asg9hF\"\n}",
					"options": {
						"raw": {
							"language": "json"
						}
					}
				},
				"url": {
					"raw": "http://localhost:3000/auth/v1/authenticate",
					"protocol": "http",
					"host": [
						"localhost"
					],
					"port": "3000",
					"path": [
						"auth",
						"v1",
						"authenticate"
					]
				}
			},
			"response": []
		}
	],
	"protocolProfileBehavior": {}
}